(kicad_sch (version 20211123) (generator eeschema)

  (uuid ebca7c5e-ae52-43e5-ac6c-69a96a9a5b24)

  (paper "A4")

  (title_block
    (title "Peojekt Budík")
    (date "17.6.2022")
    (rev "Jan Špaček")
    (company "SPSEOL")
  )

  (lib_symbols
  )


  (wire (pts (xy 109.22 76.2) (xy 119.38 76.2))
    (stroke (width 0) (type default) (color 0 0 0 0))
    (uuid 105399bf-1698-4250-8eb0-22aa6523f945)
  )
  (wire (pts (xy 137.16 73.66) (xy 146.05 73.66))
    (stroke (width 0) (type default) (color 0 0 0 0))
    (uuid 3142579b-1993-4896-8f5b-11f640190e35)
  )
  (wire (pts (xy 109.22 81.28) (xy 119.38 81.28))
    (stroke (width 0) (type default) (color 0 0 0 0))
    (uuid a053dd88-0196-4991-856a-dc328cefc773)
  )
  (wire (pts (xy 137.16 71.12) (xy 146.05 71.12))
    (stroke (width 0) (type default) (color 0 0 0 0))
    (uuid a1732cb9-47a1-4e99-9913-664f2ecd05fb)
  )
  (wire (pts (xy 109.22 71.12) (xy 119.38 71.12))
    (stroke (width 0) (type default) (color 0 0 0 0))
    (uuid eb35efdc-92d8-4811-ad47-8622e5aa18e9)
  )

  (sheet (at 119.38 63.5) (size 17.78 35.56) (fields_autoplaced)
    (stroke (width 0.1524) (type solid) (color 0 0 0 1))
    (fill (color 255 255 0 0.3000))
    (uuid 22c300f1-b7b7-4d61-bf6b-cc19644bd26a)
    (property "Sheet name" "stm8" (id 0) (at 119.38 62.7884 0)
      (effects (font (size 1.27 1.27)) (justify left bottom))
    )
    (property "Sheet file" "stm8.kicad_sch" (id 1) (at 119.38 99.6446 0)
      (effects (font (size 1.27 1.27)) (justify left top))
    )
    (pin "PD0" output (at 119.38 71.12 180)
      (effects (font (size 1.27 1.27)) (justify left))
      (uuid 1f6ffd5d-6389-42e1-8084-d445c2297a0d)
    )
    (pin "PD2" output (at 119.38 76.2 180)
      (effects (font (size 1.27 1.27)) (justify left))
      (uuid b7975dbd-64a4-4247-bcfe-41b345e34ae3)
    )
    (pin "PD3" output (at 119.38 81.28 180)
      (effects (font (size 1.27 1.27)) (justify left))
      (uuid c02f07d6-c465-4869-b870-6e4291fb3c7f)
    )
    (pin "PG5" output (at 137.16 71.12 0)
      (effects (font (size 1.27 1.27)) (justify right))
      (uuid 1fb525c7-d020-4756-b775-b3cb29894df5)
    )
    (pin "PG4" output (at 137.16 73.66 0)
      (effects (font (size 1.27 1.27)) (justify right))
      (uuid 5372a8e2-973d-45b0-9fb8-56f4b41eb987)
    )
  )

  (sheet (at 67.31 68.58) (size 41.91 15.24) (fields_autoplaced)
    (stroke (width 0.1524) (type solid) (color 0 0 0 1))
    (fill (color 255 255 0 0.3000))
    (uuid 31a45e38-00ee-4fcb-937d-b08ee2519488)
    (property "Sheet name" "Displej" (id 0) (at 67.31 67.8684 0)
      (effects (font (size 1.27 1.27)) (justify left bottom))
    )
    (property "Sheet file" "displej.kicad_sch" (id 1) (at 67.31 84.4046 0)
      (effects (font (size 1.27 1.27)) (justify left top))
    )
    (pin "DIN" input (at 109.22 81.28 0)
      (effects (font (size 1.27 1.27)) (justify right))
      (uuid f45d120b-2e53-4316-a661-02220d0bbfe0)
    )
    (pin "CLK" input (at 109.22 71.12 0)
      (effects (font (size 1.27 1.27)) (justify right))
      (uuid a98fa237-19bb-4cc2-869e-e74370d52091)
    )
    (pin "LOAD" input (at 109.22 76.2 0)
      (effects (font (size 1.27 1.27)) (justify right))
      (uuid 726ccd17-5c66-41d5-9af9-42baab6673ab)
    )
  )

  (sheet (at 146.05 68.58) (size 12.7 8.89) (fields_autoplaced)
    (stroke (width 0.1524) (type solid) (color 0 0 0 1))
    (fill (color 255 255 0 0.3000))
    (uuid 61031825-272e-475d-b44c-751c11268842)
    (property "Sheet name" "Tlačítka" (id 0) (at 146.05 67.8684 0)
      (effects (font (size 1.27 1.27)) (justify left bottom))
    )
    (property "Sheet file" "tlacitka.kicad_sch" (id 1) (at 146.05 78.0546 0)
      (effects (font (size 1.27 1.27)) (justify left top))
    )
    (pin "BTN1" input (at 146.05 71.12 180)
      (effects (font (size 1.27 1.27)) (justify left))
      (uuid 14a76558-e6b7-4dab-b9fd-254b5fd57ffb)
    )
    (pin "BTN2" input (at 146.05 73.66 180)
      (effects (font (size 1.27 1.27)) (justify left))
      (uuid 61d6c2a7-126c-41e0-8719-b813c644000d)
    )
  )

  (sheet_instances
    (path "/" (page "1"))
    (path "/61031825-272e-475d-b44c-751c11268842" (page "3"))
    (path "/31a45e38-00ee-4fcb-937d-b08ee2519488" (page "4"))
    (path "/22c300f1-b7b7-4d61-bf6b-cc19644bd26a" (page "4"))
  )

  (symbol_instances
    (path "/22c300f1-b7b7-4d61-bf6b-cc19644bd26a/39bbbf86-a2d0-4c23-a25d-0ec4bacbd574"
      (reference "#PWR01") (unit 1) (value "GNDREF") (footprint "")
    )
    (path "/22c300f1-b7b7-4d61-bf6b-cc19644bd26a/23232c63-da98-4c73-8b43-a3acadeeef9c"
      (reference "#PWR02") (unit 1) (value "GNDREF") (footprint "")
    )
    (path "/61031825-272e-475d-b44c-751c11268842/4a2de472-40fc-46e6-8d45-602a0d5b0b00"
      (reference "#PWR03") (unit 1) (value "GNDREF") (footprint "")
    )
    (path "/22c300f1-b7b7-4d61-bf6b-cc19644bd26a/e93a4eb7-1df5-4ec8-b8d8-33d4cb806736"
      (reference "#PWR04") (unit 1) (value "GNDREF") (footprint "")
    )
    (path "/22c300f1-b7b7-4d61-bf6b-cc19644bd26a/b901f3ba-058e-44f7-b641-744da8dd6415"
      (reference "#PWR05") (unit 1) (value "VDD") (footprint "")
    )
    (path "/22c300f1-b7b7-4d61-bf6b-cc19644bd26a/8b5154dc-4718-4a03-ad67-ed035a4319ce"
      (reference "#PWR06") (unit 1) (value "GNDREF") (footprint "")
    )
    (path "/31a45e38-00ee-4fcb-937d-b08ee2519488/1a4fd59e-c6a5-4916-8b33-392caa3c95c5"
      (reference "#PWR07") (unit 1) (value "+5V") (footprint "")
    )
    (path "/31a45e38-00ee-4fcb-937d-b08ee2519488/70b44751-e45e-4091-91e4-05eca3f68d1b"
      (reference "#PWR08") (unit 1) (value "GNDREF") (footprint "")
    )
    (path "/22c300f1-b7b7-4d61-bf6b-cc19644bd26a/a69ed6a0-5f4d-4ced-ab67-5d1fe9cb20b2"
      (reference "#PWR09") (unit 1) (value "GND") (footprint "")
    )
    (path "/22c300f1-b7b7-4d61-bf6b-cc19644bd26a/950756d1-03fe-43a0-95e7-909930c47f2a"
      (reference "#PWR010") (unit 1) (value "VDD") (footprint "")
    )
    (path "/22c300f1-b7b7-4d61-bf6b-cc19644bd26a/a4eb21c6-285b-40a9-9401-daa21a94bf6e"
      (reference "#PWR011") (unit 1) (value "GND") (footprint "")
    )
    (path "/22c300f1-b7b7-4d61-bf6b-cc19644bd26a/d8b0ff31-7470-40f0-bc24-bdf69a8dcefa"
      (reference "#PWR012") (unit 1) (value "AVDD") (footprint "")
    )
    (path "/22c300f1-b7b7-4d61-bf6b-cc19644bd26a/ab1e0f05-b1ba-418b-9e43-ba5776957f76"
      (reference "#PWR013") (unit 1) (value "AGND") (footprint "")
    )
    (path "/22c300f1-b7b7-4d61-bf6b-cc19644bd26a/afd7a12d-e4dd-4446-8878-eb084dfb6ff4"
      (reference "#PWR014") (unit 1) (value "VDD") (footprint "")
    )
    (path "/22c300f1-b7b7-4d61-bf6b-cc19644bd26a/5390b569-f063-47f4-893b-9a990f4ea824"
      (reference "#PWR015") (unit 1) (value "GND") (footprint "")
    )
    (path "/22c300f1-b7b7-4d61-bf6b-cc19644bd26a/02a08a24-751b-4ad4-b6b1-621603af88cc"
      (reference "#PWR016") (unit 1) (value "VDD") (footprint "")
    )
    (path "/22c300f1-b7b7-4d61-bf6b-cc19644bd26a/b4ea3746-4064-4172-90ab-a704cbf264c0"
      (reference "#PWR017") (unit 1) (value "GND") (footprint "")
    )
    (path "/22c300f1-b7b7-4d61-bf6b-cc19644bd26a/668b82fe-b542-4bd0-b2a5-5dae0ac43510"
      (reference "#PWR018") (unit 1) (value "AVDD") (footprint "")
    )
    (path "/22c300f1-b7b7-4d61-bf6b-cc19644bd26a/a369e2da-4075-4f0c-a909-dceb52c2dd26"
      (reference "#PWR019") (unit 1) (value "AGND") (footprint "")
    )
    (path "/22c300f1-b7b7-4d61-bf6b-cc19644bd26a/97991479-e19e-4c88-ad9c-d8ad199fbe5b"
      (reference "B1") (unit 1) (value "BLUE-USER") (footprint "")
    )
    (path "/22c300f1-b7b7-4d61-bf6b-cc19644bd26a/71bd643c-7274-4012-afb7-c406e33045cf"
      (reference "B2") (unit 1) (value "BLACK-RESET") (footprint "")
    )
    (path "/61031825-272e-475d-b44c-751c11268842/76b5d9a7-4381-4cbc-a257-112eee20ad76"
      (reference "BTN1") (unit 1) (value "SW_MEC_5G") (footprint "")
    )
    (path "/61031825-272e-475d-b44c-751c11268842/25ac3d49-b9d9-46c9-aba3-0ae5dfb2c9cd"
      (reference "BTN2") (unit 1) (value "SW_MEC_5G") (footprint "")
    )
    (path "/22c300f1-b7b7-4d61-bf6b-cc19644bd26a/b57111cb-681a-459e-9116-de9c63b15fd9"
      (reference "C1") (unit 1) (value "100nF") (footprint "")
    )
    (path "/22c300f1-b7b7-4d61-bf6b-cc19644bd26a/f0f20888-d013-4500-a3ec-18bbddd3dab6"
      (reference "C2") (unit 1) (value "12pF") (footprint "")
    )
    (path "/22c300f1-b7b7-4d61-bf6b-cc19644bd26a/2435e4d8-2263-41b9-84fd-a18b90c3533b"
      (reference "C3") (unit 1) (value "12pF") (footprint "")
    )
    (path "/22c300f1-b7b7-4d61-bf6b-cc19644bd26a/fba37dc2-213f-43e4-bda2-2be34fab4948"
      (reference "C4") (unit 1) (value "100nF") (footprint "")
    )
    (path "/22c300f1-b7b7-4d61-bf6b-cc19644bd26a/d22ab3b3-7dd4-44ab-ab4f-363a34dc95db"
      (reference "C5") (unit 1) (value "1u") (footprint "")
    )
    (path "/22c300f1-b7b7-4d61-bf6b-cc19644bd26a/4a8a7ae8-e1f4-43bc-bf27-d27128fb055b"
      (reference "C6") (unit 1) (value "100n") (footprint "")
    )
    (path "/22c300f1-b7b7-4d61-bf6b-cc19644bd26a/4c14047a-a6b3-4fa7-8d18-c345b7a86919"
      (reference "C7") (unit 1) (value "100n") (footprint "")
    )
    (path "/22c300f1-b7b7-4d61-bf6b-cc19644bd26a/c28bdfe9-0b98-47ff-a1f0-83c04c9b112d"
      (reference "C8") (unit 1) (value "1u") (footprint "")
    )
    (path "/22c300f1-b7b7-4d61-bf6b-cc19644bd26a/dea8b7d8-5a3b-4f48-bdf6-9a80143c0003"
      (reference "C9") (unit 1) (value "100n") (footprint "")
    )
    (path "/22c300f1-b7b7-4d61-bf6b-cc19644bd26a/e03f82b5-d29f-4a54-bd29-7ec329714377"
      (reference "C10") (unit 1) (value "100n") (footprint "")
    )
    (path "/22c300f1-b7b7-4d61-bf6b-cc19644bd26a/cae9f394-d509-45ad-a165-834d63dce8b7"
      (reference "D1") (unit 1) (value "LED") (footprint "")
    )
    (path "/22c300f1-b7b7-4d61-bf6b-cc19644bd26a/7ac680eb-02c3-488d-9052-a4bda05e99dd"
      (reference "JP1") (unit 1) (value "SolderJumper_2_Open") (footprint "")
    )
    (path "/22c300f1-b7b7-4d61-bf6b-cc19644bd26a/d094a4b8-0876-42a4-af18-c6e644dd1dc4"
      (reference "L1") (unit 1) (value "Bead") (footprint "")
    )
    (path "/22c300f1-b7b7-4d61-bf6b-cc19644bd26a/440723b3-9d7b-4656-a182-10e163237bcd"
      (reference "R1") (unit 1) (value "100R") (footprint "")
    )
    (path "/22c300f1-b7b7-4d61-bf6b-cc19644bd26a/e7c484b9-d66a-48e9-9a0f-b72b77f5ed52"
      (reference "R2") (unit 1) (value "330R") (footprint "")
    )
    (path "/22c300f1-b7b7-4d61-bf6b-cc19644bd26a/e4ebfbbb-b69d-4927-897f-5731093999d1"
      (reference "R3") (unit 1) (value "0R") (footprint "")
    )
    (path "/22c300f1-b7b7-4d61-bf6b-cc19644bd26a/900a2e6b-cd4f-48d1-87a7-81dc8f21cf31"
      (reference "R4") (unit 1) (value "0R") (footprint "")
    )
    (path "/22c300f1-b7b7-4d61-bf6b-cc19644bd26a/e082df28-aa33-46da-8605-3289b3c71e39"
      (reference "R5") (unit 1) (value "4K7") (footprint "")
    )
    (path "/22c300f1-b7b7-4d61-bf6b-cc19644bd26a/b02b58d2-2af5-409e-abc3-4e63303317cf"
      (reference "R6") (unit 1) (value "100R") (footprint "")
    )
    (path "/22c300f1-b7b7-4d61-bf6b-cc19644bd26a/db35f27a-af77-4fd1-afe1-db6d6e1d9277"
      (reference "U1") (unit 1) (value "STM8S208RB") (footprint "Package_QFP:LQFP-64_10x10mm_P0.5mm")
    )
    (path "/31a45e38-00ee-4fcb-937d-b08ee2519488/eb764703-49e8-4234-9c09-11fea090858f"
      (reference "U2") (unit 1) (value "CA56-12CGKWA") (footprint "Display_7Segment:CA56-12CGKWA")
    )
    (path "/31a45e38-00ee-4fcb-937d-b08ee2519488/214edf15-b208-48f4-9d12-7efce0a10d36"
      (reference "U3") (unit 1) (value "MAX7219") (footprint "")
    )
    (path "/31a45e38-00ee-4fcb-937d-b08ee2519488/9c5470ed-0210-49ea-943e-7fd0866488c7"
      (reference "U4") (unit 1) (value "CA56-12CGKWA") (footprint "Display_7Segment:CA56-12CGKWA")
    )
    (path "/22c300f1-b7b7-4d61-bf6b-cc19644bd26a/34c62428-6a4d-4262-8fae-30f0e4e2d3df"
      (reference "X2") (unit 1) (value "8MHz") (footprint "")
    )
  )
)
